{
    "mock-role": [
        {
            "_id": "5942011dc74c32003801165d",
            "name": "admin",
            "ref_id": "01",
            "permission": {
                "chat-explorer": [
                    "all",
                    "create",
                    "edit",
                    "update",
                    "delete"
                ],
                "dialogue": [
                    "all",
                    "create",
                    "edit",
                    "update",
                    "delete"
                ],
                "intent": [
                    "all",
                    "create",
                    "edit",
                    "update",
                    "delete"
                ],
                "engagement": [
                    "all",
                    "create",
                    "edit",
                    "update",
                    "delete"
                ],
                "account": [
                    "all",
                    "create",
                    "edit",
                    "update",
                    "delete"
                ],
                "company": [
                    "all",
                    "create",
                    "edit",
                    "update",
                    "delete"
                ]
            }
        },
        {
            "_id": "5ac5c68d1c03ce0082490978",
            "name": "user",
            "ref_id": "02",
            "permission": {
                "chat-explorer": [
                    "all",
                    "create",
                    "edit",
                    "update",
                    "delete"
                ],
                "dialogue": [
                    "all",
                    "create",
                    "edit",
                    "update",
                    "delete"
                ],
                "intent": [
                    "all",
                    "create",
                    "edit",
                    "update",
                    "delete"
                ],
                "engagement": [
                    "all",
                    "create",
                    "edit",
                    "update",
                    "delete"
                ]
            }
        },
        {
            "_id": "5942011dc74c32003801165f",
            "name": "content",
            "ref_id": "03",
            "permission": {
                "chat-explorer": [
                    "all",
                    "create",
                    "edit",
                    "update",
                    "delete"
                ],
                "dialogue": [
                    "all",
                    "create",
                    "edit",
                    "update",
                    "delete"
                ],
                "intent": [
                    "all",
                    "create",
                    "edit",
                    "update",
                    "delete"
                ],
                "engagement": [
                    "all",
                    "create",
                    "edit",
                    "update",
                    "delete"
                ],
                "account": [
                    "all",
                    "create",
                    "edit",
                    "update",
                    "delete"
                ],
                "company": [
                    "all",
                    "create",
                    "edit",
                    "update",
                    "delete"
                ]
            }
        },
        {
            "_id": "5942011dc74c32003801165e",
            "name": "superuser",
            "ref_id": "04",
            "permission": {
                "chat-explorer": [
                    "all",
                    "create",
                    "edit",
                    "update",
                    "delete"
                ],
                "dialogue": [
                    "all",
                    "create",
                    "edit",
                    "update",
                    "delete"
                ],
                "intent": [
                    "all",
                    "create",
                    "edit",
                    "update",
                    "delete"
                ],
                "engagement": [
                    "all",
                    "create",
                    "edit",
                    "update",
                    "delete"
                ],
                "account": [
                    "all",
                    "create",
                    "edit",
                    "update",
                    "delete"
                ],
                "company": [
                    "all",
                    "create",
                    "edit",
                    "update",
                    "delete"
                ],
                "report": [
                    "all",
                    "create",
                    "edit",
                    "update",
                    "delete"
                ]
            }
        }
    ],
    "mock-company": {
        "company": {
            "591c16b370cdce00c35f5bcd": "BAY",
            "592e35f8a61db000e72a3cea": "Mojito",
            "59e2305b235d2500edff783f": "Central",
            "59f97c99d79f7200e8382dbf": "AYCAP",
            "5aebfaf2eabeaa0022163beb": "Krungsri",
            "5a4468c3dc8a9e00ecfe7dc9": "Sixcoin"
        }
    },
    "reverse-mock-company": {
        "company": {
            "BAY": "591c16b370cdce00c35f5bcd",
            "Mojito": "592e35f8a61db000e72a3cea",
            "Central": "59e2305b235d2500edff783f",
            "AYCAP": "59f97c99d79f7200e8382dbf",
            "Krungsri": "5aebfaf2eabeaa0022163beb",
            "Sixcoin": "5a4468c3dc8a9e00ecfe7dc9"
        }
    },
    "reverse-mock-role": {
        "role": {
            "admin": "5942011dc74c32003801165d",
            "user": "5ac5c68d1c03ce0082490978",
            "content": "5942011dc74c32003801165f",
            "superuser": "5942011dc74c32003801165e"
        }
    },
    "mock-account": {
        "content": [
            {
                "name": "Bunlert Khongkaho",
                "email": "bunlert.khongkaho@gmail.com",
                "multiCompany": false,
                "approved": true,
                "_id": "59b7e8ca1f23a7002529d591",
                "created_at": "2017-09-12T14:01:46.345+0000",
                "updated_at": "2018-09-04T04:47:24.498+0000",
                "profile_url": "https://lh6.googleusercontent.com/-eDkRN2kP0ic/AAAAAAAAAAI/AAAAAAAAGZ0/yWRRbNal79E/s96-c/photo.jpg",
                "company_ids": [
                    "591c16b370cdce00c35f5bcd",
                    "592e35f8a61db000e72a3cea",
                    "59e2305b235d2500edff783f",
                    "59f97c99d79f7200e8382dbf",
                    "5aebfaf2eabeaa0022163beb"
                ],
                "multi_company": false,
                "is_approved": true,
                "role_id": "5942011dc74c32003801165d",
                "social_network_ref_ids": [
                    "184206798859888",
                    "943292552449375",
                    "397163293657235",
                    "412054032553292",
                    "568756600190500"
                ]
            },
            {
                "name": "Bunlert Khongkaho",
                "email": "bunlert@mojito.ai",
                "multiCompany": false,
                "approved": true,
                "_id": "5b7fb03e30374d0001c72aa2",
                "created_at": "2018-08-24T07:14:05.955+0000",
                "updated_at": "2018-09-04T04:47:25.324+0000",
                "profile_url": "https://lh6.googleusercontent.com/-cuLLS4GXZEg/AAAAAAAAAAI/AAAAAAAAAAc/UodWXr4cv3s/s96-c/photo.jpg",
                "company_ids": [
                    "59e2305b235d2500edff783f"
                ],
                "multi_company": false,
                "is_approved": true,
                "role_id": "5ac5c68d1c03ce0082490978",
                "social_network_ref_ids": []
            },
            {
                "name": "Chanyanuch Sitti",
                "email": "chanyanuch@computerlogy.com",
                "multiCompany": false,
                "approved": true,
                "_id": "59e47c7170ec8e0024446fb2",
                "created_at": "2017-10-16T09:31:29.741+0000",
                "updated_at": "2018-09-04T04:47:24.550+0000",
                "profile_url": "https://lh3.googleusercontent.com/-OsMMPiJeYRQ/AAAAAAAAAAI/AAAAAAAAABc/vBaoiLtmTKI/s96-c/photo.jpg",
                "company_ids": [
                    "591c16b370cdce00c35f5bcd"
                ],
                "multi_company": false,
                "is_approved": true,
                "role_id": "5942011dc74c32003801165f",
                "social_network_ref_ids": []
            },
            {
                "name": "Kamolsit Mongkolsrisawat",
                "email": "kamolsit@computerlogy.com",
                "multiCompany": false,
                "approved": true,
                "_id": "59acbf7d238ac00025a4b1d2",
                "created_at": "2017-09-04T02:50:37.795+0000",
                "updated_at": "2018-09-04T04:47:24.418+0000",
                "profile_url": "https://lh3.googleusercontent.com/-YKxbt1kUMNQ/AAAAAAAAAAI/AAAAAAAEPCw/jxqXSuUuUNM/s96-c/photo.jpg",
                "company_ids": [
                    "591c16b370cdce00c35f5bcd",
                    "592e35f8a61db000e72a3cea",
                    "59e2305b235d2500edff783f",
                    "59f97c99d79f7200e8382dbf"
                ],
                "multi_company": false,
                "is_approved": true,
                "role_id": "5942011dc74c32003801165d",
                "social_network_ref_ids": [
                    "943292552449375",
                    "315082542302940",
                    "1866502950331403",
                    "134745667193201",
                    "184206798859888",
                    "164620997581902",
                    "568756600190500"
                ]
            },
            {
                "name": "Karun Warapongsittikul",
                "email": "karun@computerlogy.com",
                "multiCompany": false,
                "approved": true,
                "_id": "59e749b170ec8e0024446fb5",
                "created_at": "2017-10-18T12:31:45.220+0000",
                "updated_at": "2018-09-04T04:47:24.607+0000",
                "profile_url": "https://lh6.googleusercontent.com/-Qs7er4b76aA/AAAAAAAAAAI/AAAAAAAAAEU/cijEkmslV5Q/s96-c/photo.jpg",
                "company_ids": [
                    "591c16b370cdce00c35f5bcd",
                    "59f97c99d79f7200e8382dbf",
                    "592e35f8a61db000e72a3cea",
                    "59e2305b235d2500edff783f"
                ],
                "multi_company": false,
                "is_approved": true,
                "role_id": "5942011dc74c32003801165d",
                "social_network_ref_ids": [
                    "943292552449375",
                    "184206798859888"
                ]
            },
            {
                "name": "Naritsara Tharaputh",
                "email": "naritsara@computerlogy.com",
                "multiCompany": false,
                "approved": true,
                "_id": "594395eb167bac0024733cdc",
                "created_at": "2017-06-16T08:25:15.612+0000",
                "updated_at": "2018-09-04T04:47:24.207+0000",
                "profile_url": "https://lh4.googleusercontent.com/-IQOQuj78MZA/AAAAAAAAAAI/AAAAAAAAAAw/oVe1vileEp4/s96-c/photo.jpg",
                "company_ids": [
                    "591c16b370cdce00c35f5bcd",
                    "59f97c99d79f7200e8382dbf",
                    "592e35f8a61db000e72a3cea",
                    "59e2305b235d2500edff783f"
                ],
                "multi_company": false,
                "is_approved": true,
                "role_id": "5942011dc74c32003801165d",
                "social_network_ref_ids": [
                    "943292552449375",
                    "184206798859888"
                ]
            },
            {
                "name": "Nattapong Permpoonsiri",
                "email": "nattapong.ppsr@gmail.com",
                "multiCompany": false,
                "approved": true,
                "_id": "5a4dda657ed7b50028d419b9",
                "created_at": "2018-01-04T07:40:21.758+0000",
                "updated_at": "2018-09-04T04:47:24.856+0000",
                "profile_url": "https://lh6.googleusercontent.com/-rsVU3Gzak3A/AAAAAAAAAAI/AAAAAAAAAAA/AFiYof39q57nGwUb7xh5RBKICGZXmaiGiQ/s96-c/photo.jpg",
                "company_ids": [
                    "591c16b370cdce00c35f5bcd",
                    "59f97c99d79f7200e8382dbf",
                    "59e2305b235d2500edff783f",
                    "592e35f8a61db000e72a3cea",
                    "5aebfaf2eabeaa0022163beb"
                ],
                "multi_company": false,
                "is_approved": true,
                "role_id": "5942011dc74c32003801165f",
                "social_network_ref_ids": [
                    "568756600190500"
                ]
            },
            {
                "name": "Nattapong Permpoonsiri",
                "email": "nattapong@computerlogy.com",
                "multiCompany": false,
                "approved": true,
                "_id": "5ab32506b77f030023734fbc",
                "created_at": "2018-03-22T03:37:42.576+0000",
                "updated_at": "2018-09-04T04:47:24.969+0000",
                "profile_url": "https://lh3.googleusercontent.com/-zHY7DhzUmg0/AAAAAAAAAAI/AAAAAAAAAAA/AGi4gfzT0whVHrq9b-u5Ru9gQBia1Szn6Q/s96-c/photo.jpg",
                "company_ids": [
                    "591c16b370cdce00c35f5bcd",
                    "59f97c99d79f7200e8382dbf",
                    "59e2305b235d2500edff783f",
                    "592e35f8a61db000e72a3cea",
                    "5aebfaf2eabeaa0022163beb"
                ],
                "multi_company": false,
                "is_approved": true,
                "role_id": "5942011dc74c32003801165f",
                "social_network_ref_ids": [
                    "568756600190500",
                    "239657133422246"
                ]
            },
            {
                "name": "Nuntida Tavonlob",
                "email": "protexalo@gmail.com",
                "multiCompany": false,
                "approved": true,
                "_id": "5a4dda767ed7b50028d419ba",
                "created_at": "2018-01-04T07:40:38.017+0000",
                "updated_at": "2018-09-04T04:47:24.919+0000",
                "profile_url": "https://lh3.googleusercontent.com/-mUrVyiCf1rA/AAAAAAAAAAI/AAAAAAAAAnc/SoKBvKru4Nk/s96-c/photo.jpg",
                "company_ids": [
                    "591c16b370cdce00c35f5bcd",
                    "59f97c99d79f7200e8382dbf",
                    "59e2305b235d2500edff783f",
                    "592e35f8a61db000e72a3cea",
                    "5aebfaf2eabeaa0022163beb"
                ],
                "multi_company": false,
                "is_approved": true,
                "role_id": "5942011dc74c32003801165f",
                "social_network_ref_ids": [
                    "568756600190500",
                    "239657133422246",
                    "1948670612090878"
                ]
            },
            {
                "name": "Sompob Chanintornpipat",
                "email": "sompob.chanintornpipat@gmail.com",
                "multiCompany": false,
                "approved": true,
                "_id": "5a0db906642a7500248ec150",
                "created_at": "2017-11-16T16:12:54.963+0000",
                "updated_at": "2018-09-04T04:47:24.705+0000",
                "profile_url": "https://lh6.googleusercontent.com/-_v9DSC67iao/AAAAAAAAAAI/AAAAAAAAAAA/ANQ0kf71-cUB7yrQNKRAHUH1C4OMVyULKg/s96-c/photo.jpg",
                "company_ids": [
                    "591c16b370cdce00c35f5bcd",
                    "592e35f8a61db000e72a3cea",
                    "59e2305b235d2500edff783f",
                    "59f97c99d79f7200e8382dbf",
                    "5a4468c3dc8a9e00ecfe7dc9",
                    "5aebfaf2eabeaa0022163beb"
                ],
                "multi_company": false,
                "is_approved": true,
                "role_id": "5942011dc74c32003801165d",
                "social_network_ref_ids": [
                    "943292552449375",
                    "184206798859888",
                    "397163293657235",
                    "412054032553292",
                    "umHsQO15P8UPPqKcs0dbMoSQjWNYk4ZR",
                    "1948670612090878"
                ]
            },
            {
                "name": "Sukhum Boondecharak",
                "email": "sukhum@computerlogy.com",
                "multiCompany": false,
                "approved": true,
                "_id": "5ac2e68df2246d0024492bf4",
                "created_at": "2018-04-03T02:27:25.503+0000",
                "updated_at": "2018-09-04T04:47:25.032+0000",
                "profile_url": "https://lh5.googleusercontent.com/-Wr67smTe9EA/AAAAAAAAAAI/AAAAAAAAABE/7v0L3tWNJt8/s96-c/photo.jpg",
                "company_ids": [
                    "59e2305b235d2500edff783f"
                ],
                "multi_company": false,
                "is_approved": true,
                "role_id": "5942011dc74c32003801165f",
                "social_network_ref_ids": [
                    "184206798859888"
                ]
            },
            {
                "name": "Taksapond Rattanasawaiwong",
                "email": "taksapond@computerlogy.com",
                "multiCompany": false,
                "approved": true,
                "_id": "5b3f21541b1ed40025f5418d",
                "created_at": "2018-07-06T07:59:16.075+0000",
                "updated_at": "2018-09-04T04:47:25.270+0000",
                "profile_url": "https://lh6.googleusercontent.com/-cCgmdiWs4yU/AAAAAAAAAAI/AAAAAAAAAAA/AB6qoq1OrwYyg79NG3D-ekQ1hDCPSKCpDg/s96-c/photo.jpg",
                "company_ids": [
                    "591c16b370cdce00c35f5bcd",
                    "59f97c99d79f7200e8382dbf",
                    "592e35f8a61db000e72a3cea",
                    "59e2305b235d2500edff783f",
                    "5aebfaf2eabeaa0022163beb"
                ],
                "multi_company": false,
                "is_approved": true,
                "role_id": "5942011dc74c32003801165d",
                "social_network_ref_ids": [
                    "943292552449375",
                    "184206798859888",
                    "1866502950331403",
                    "412054032553292",
                    "568756600190500"
                ]
            },
            {
                "name": "Taksapond Rattanasawaiwong",
                "email": "taksapond@mojito.ai",
                "multiCompany": false,
                "approved": true,
                "_id": "5b8e0d81f606e300012e72f0",
                "created_at": "2018-09-04T04:43:45.874+0000",
                "updated_at": "2018-09-04T04:47:25.476+0000",
                "profile_url": "https://lh6.googleusercontent.com/-Rn7ngjFBHxo/AAAAAAAAAAI/AAAAAAAAABE/KnCI69l6nv0/s96-c/photo.jpg",
                "company_ids": [
                    "59f97c99d79f7200e8382dbf",
                    "5aebfaf2eabeaa0022163beb",
                    "59e2305b235d2500edff783f"
                ],
                "multi_company": false,
                "is_approved": true,
                "role_id": "5942011dc74c32003801165d",
                "social_network_ref_ids": []
            },
            {
                "name": "Warakorn Nirandaropas",
                "email": "warakorn.niran@gmail.com",
                "multiCompany": false,
                "approved": true,
                "_id": "5b8dfd31f606e300012e72ee",
                "created_at": "2018-09-04T03:34:09.771+0000",
                "updated_at": "2018-09-04T04:47:25.369+0000",
                "profile_url": "https://lh6.googleusercontent.com/-o-zDZAm9Bks/AAAAAAAAAAI/AAAAAAAAAAc/1zmlutzziQI/s96-c/photo.jpg",
                "company_ids": [
                    "59f97c99d79f7200e8382dbf",
                    "591c16b370cdce00c35f5bcd"
                ],
                "multi_company": false,
                "is_approved": true,
                "role_id": "5942011dc74c32003801165e",
                "social_network_ref_ids": []
            },
            {
                "name": "Yanika Kongkathon",
                "email": "funyanika.k@gmail.com",
                "multiCompany": false,
                "approved": true,
                "_id": "5943509b16904f00254fb1c4",
                "created_at": "2017-06-16T03:29:31.910+0000",
                "updated_at": "2018-09-04T04:47:24.054+0000",
                "profile_url": "https://lh3.googleusercontent.com/-XgiuZlDvgGg/AAAAAAAAAAI/AAAAAAAAAAA/AAyYBF4JJ_TjWqTTCQ0qos2tdoA5bPz_zQ/s96-c/photo.jpg",
                "company_ids": [
                    "591c16b370cdce00c35f5bcd",
                    "59f97c99d79f7200e8382dbf",
                    "592e35f8a61db000e72a3cea",
                    "59e2305b235d2500edff783f",
                    "5aebfaf2eabeaa0022163beb"
                ],
                "multi_company": false,
                "is_approved": true,
                "role_id": "5942011dc74c32003801165d",
                "social_network_ref_ids": [
                    "943292552449375",
                    "184206798859888",
                    "1866502950331403",
                    "412054032553292",
                    "568756600190500",
                    "239657133422246"
                ]
            },
            {
                "name": "Yanisa Piasai",
                "email": "yanisa@computerlogy.com",
                "multiCompany": false,
                "approved": true,
                "_id": "5aeac6a8e42cc100262d97b9",
                "created_at": "2018-05-03T08:22:00.054+0000",
                "updated_at": "2018-09-04T04:47:25.124+0000",
                "profile_url": "https://lh6.googleusercontent.com/-9-L98MImUXc/AAAAAAAAAAI/AAAAAAAAAOQ/4vPeP4UYnKI/s96-c/photo.jpg",
                "company_ids": [
                    "591c16b370cdce00c35f5bcd"
                ],
                "multi_company": false,
                "is_approved": true,
                "role_id": "5ac5c68d1c03ce0082490978",
                "social_network_ref_ids": [
                    "397163293657235"
                ]
            },
            {
                "name": "Ze120",
                "email": "top24708@gmail.com",
                "multiCompany": false,
                "approved": true,
                "_id": "5b8e0ae2f606e300012e72ef",
                "created_at": "2018-09-04T04:32:34.710+0000",
                "updated_at": "2018-09-04T04:47:25.431+0000",
                "profile_url": "https://lh4.googleusercontent.com/-KKa7xFlC5Jo/AAAAAAAAAAI/AAAAAAAAAAA/APUIFaPxWNgo-S1ZtluN2HfccdmqsH9eLA/s96-c/photo.jpg",
                "company_ids": [
                    "591c16b370cdce00c35f5bcd"
                ],
                "multi_company": false,
                "is_approved": true,
                "role_id": "5942011dc74c32003801165f",
                "social_network_ref_ids": []
            },
            {
                "name": "apipol sukgler",
                "email": "golf.apipol@gmail.com",
                "multiCompany": false,
                "approved": true,
                "_id": "5943a19f25f8a900244596db",
                "created_at": "2017-06-16T09:15:11.571+0000",
                "updated_at": "2018-09-04T04:47:24.297+0000",
                "profile_url": "https://lh4.googleusercontent.com/-5XNAkaF5wG4/AAAAAAAAAAI/AAAAAAAAAEI/HzeUQFBogVQ/s96-c/photo.jpg",
                "company_ids": [
                    "59e2305b235d2500edff783f",
                    "591c16b370cdce00c35f5bcd",
                    "59f97c99d79f7200e8382dbf"
                ],
                "multi_company": false,
                "is_approved": true,
                "role_id": "5ac5c68d1c03ce0082490978",
                "social_network_ref_ids": []
            },
            {
                "name": "manud tester",
                "email": "manudtester@gmail.com",
                "multiCompany": false,
                "approved": true,
                "_id": "5a0e836d642a7500248ec15a",
                "created_at": "2017-11-17T06:36:29.710+0000",
                "updated_at": "2018-09-04T04:47:24.759+0000",
                "profile_url": "https://lh5.googleusercontent.com/-8ddmbt1ajSc/AAAAAAAAAAI/AAAAAAAAAAA/ANQ0kf5mp3yqMU9rPMvNYhrQXoiHS4oGLw/s96-c/photo.jpg",
                "company_ids": [
                    "5aebfaf2eabeaa0022163beb"
                ],
                "multi_company": false,
                "is_approved": true,
                "role_id": "5942011dc74c32003801165e",
                "social_network_ref_ids": [
                    "1200612826637759",
                    "umHsQO15P8UPPqKcs0dbMoSQjWNYk4ZR",
                    "7fg3XaBcstCAKdhYrUNz5k9wPtyWyYk8"
                ]
            },
            {
                "name": "mojito tester",
                "email": "testermojito@gmail.com",
                "multiCompany": false,
                "approved": true,
                "_id": "5a17a55533f9e20023de80d9",
                "created_at": "2017-11-24T04:51:33.567+0000",
                "updated_at": "2018-09-04T04:47:24.811+0000",
                "profile_url": "https://lh4.googleusercontent.com/-nl2n_Fyvg8s/AAAAAAAAAAI/AAAAAAAAAAA/AFiYof1dogKV_ZcgNHmqtS-22jp1tbPsUg/s96-c/photo.jpg",
                "company_ids": [
                    "591c16b370cdce00c35f5bcd",
                    "592e35f8a61db000e72a3cea",
                    "59e2305b235d2500edff783f",
                    "59f97c99d79f7200e8382dbf"
                ],
                "multi_company": false,
                "is_approved": true,
                "role_id": "5942011dc74c32003801165d",
                "social_network_ref_ids": []
            },
            {
                "name": "Neung",
                "email": "neungdestiny12@gmail.com",
                "multiCompany": false,
                "approved": true,
                "_id": "5a17a55533f9e20023de80d9",
                "created_at": "2017-11-24T04:51:33.567+0000",
                "updated_at": "2018-09-04T04:47:24.811+0000",
                "profile_url": "https://lh4.googleusercontent.com/-nl2n_Fyvg8s/AAAAAAAAAAI/AAAAAAAAAAA/AFiYof1dogKV_ZcgNHmqtS-22jp1tbPsUg/s96-c/photo.jpg",
                "company_ids": [
                    "591c16b370cdce00c35f5bcd",
                    "592e35f8a61db000e72a3cea",
                    "59e2305b235d2500edff783f",
                    "59f97c99d79f7200e8382dbf"
                ],
                "multi_company": false,
                "is_approved": true,
                "role_id": "5942011dc74c32003801165d",
                "social_network_ref_ids": []
            }
        ],
        "pageable": {
            "sort": {
                "unsorted": false,
                "sorted": true
            },
            "pageSize": 20,
            "pageNumber": 0,
            "offset": 0,
            "paged": true,
            "unpaged": false
        },
        "totalPages": 2,
        "totalElements": 24,
        "last": false,
        "sort": {
            "unsorted": false,
            "sorted": true
        },
        "first": true,
        "numberOfElements": 20,
        "size": 20,
        "number": 0
    }
}